lab_6
…
isolates <- which(w_queen$neighbours == "0")
isolates

[1]  46  52 332 340 343 359

br <- br[-c(isolates),]
br

Simple feature collection with 374 features and 4 fields
Geometry type: MULTIPOLYGON
Dimension:     XY
Bounding box:  xmin: -7.015329 ymin: 49.9588 xmax: 1.763546 ymax: 58.6969
Geodetic CRS:  WGS 84
# A tibble: 374 × 5
   objectid lad16cd   lad16nm                Pct_Leave                      geom
      <dbl> <chr>     <chr>                      <dbl>        <MULTIPOLYGON [°]>
 1        1 E06000001 Hartlepool                  69.6 (((-1.270237 54.72716, -…
 2        2 E06000002 Middlesbrough               65.5 (((-1.230014 54.5841, -1…
 3        3 E06000003 Redcar and Cleveland        66.2 (((-1.137166 54.64693, -…
 4        4 E06000004 Stockton-on-Tees            61.7 (((-1.317743 54.64524, -…
 5        5 E06000005 Darlington                  56.2 (((-1.637991 54.61719, -…
 6        6 E06000006 Halton                      57.4 (((-2.626836 53.35462, -…
 7        7 E06000007 Warrington                  54.3 (((-2.478154 53.4434, -2…
 8        8 E06000008 Blackburn with Darwen       56.3 (((-2.465809 53.7808, -2…
 9        9 E06000009 Blackpool                   67.5 (((-3.019365 53.83893, -…
10       10 E06000010 Kingston upon Hull, C…      67.6 (((-0.3161265 53.81325, …
# ℹ 364 more rows
…
Weights style: W 
Weights constants summary:
    n     nn  S0       S1       S2
W 374 139876 374 169.5763 1576.155

br$w_Pct_Leave <- lag.listw(w_queen_std, br$Pct_Leave)

br

Simple feature collection with 374 features and 5 fields
Geometry type: MULTIPOLYGON
Dimension:     XY
Bounding box:  xmin: -7.015329 ymin: 49.9588 xmax: 1.763546 ymax: 58.6969
Geodetic CRS:  WGS 84
# A tibble: 374 × 6
   objectid lad16cd   lad16nm    Pct_Leave                      geom w_Pct_Leave
 *    <dbl> <chr>     <chr>          <dbl>        <MULTIPOLYGON [°]>       <dbl>
 1        1 E06000001 Hartlepool      69.6 (((-1.270237 54.72716, -…        59.6
 2        2 E06000002 Middlesbr…      65.5 (((-1.230014 54.5841, -1…        60.5
 3        3 E06000003 Redcar an…      66.2 (((-1.137166 54.64693, -…        60.4
 4        4 E06000004 Stockton-…      61.7 (((-1.317743 54.64524, -…        60.5
 5        5 E06000005 Darlington      56.2 (((-1.637991 54.61719, -…        57.4
 6        6 E06000006 Halton          57.4 (((-2.626836 53.35462, -…        51.3
 7        7 E06000007 Warrington      54.3 (((-2.478154 53.4434, -2…        54.3
 8        8 E06000008 Blackburn…      56.3 (((-2.465809 53.7808, -2…        58.7
 9        9 E06000009 Blackpool       67.5 (((-3.019365 53.83893, -…        60.4
10       10 E06000010 Kingston …      67.6 (((-0.3161265 53.81325, …        60.4
# ℹ 364 more rows
…
